<svg width="33" height="33" viewBox="0 0 33 33" fill="none" xmlns="http://www.w3.org/2000/svg">
<path d="M5.5 17.875L22.2338 17.875L14.5475 25.5612L16.5 27.5L27.5 16.5L16.5 5.5L14.5612 7.43875L22.2338 15.125L5.5 15.125L5.5 17.875Z" fill="#FF7000"/>
</svg>
